{
  "database": {
    "rules": "database.rules.json"
  },
  "firestore": {
    "rules": "firestore.rules",
    "indexes": "firestore.indexes.json"
  },
  "hosting": {
    "rewrites": [
      {
        "source": "**",
        "destination": "/index.html"
      }
    ],
    "public": "build",
    "ignore": ["firebase.json", "**/.*", "**/node_modules/**"]
  },
  "storage": {
    "rules": "storage.rules"
  }
}
